[
  "https://www.lynda.com/Python-tutorials/Welcome/614299/687470-4.html",
  "https://www.lynda.com/Python-tutorials/Exercise-files/614299/687471-4.html",
  "https://www.lynda.com/Python-tutorials/About-Python-3/614299/687472-4.html",
  "https://www.lynda.com/Python-tutorials/Installing-Python-Komodo-Mac/614299/687474-4.html",
  "https://www.lynda.com/Python-tutorials/Installing-Python-Komodo-Windows/614299/687475-4.html",
  "https://www.lynda.com/Python-tutorials/About-overview/614299/687477-4.html",
  "https://www.lynda.com/Python-tutorials/Hello-world/614299/687478-4.html",
  "https://www.lynda.com/Python-tutorials/Python-anatomy/614299/687479-4.html",
  "https://www.lynda.com/Python-tutorials/Expressions-statements/614299/687480-4.html",
  "https://www.lynda.com/Python-tutorials/Whitespace-comments/614299/687481-4.html",
  "https://www.lynda.com/Python-tutorials/Using-print/614299/687482-4.html",
  "https://www.lynda.com/Python-tutorials/Blocks-scope/614299/687483-4.html",
  "https://www.lynda.com/Python-tutorials/Conditionals/614299/687484-4.html",
  "https://www.lynda.com/Python-tutorials/Loops/614299/687485-4.html",
  "https://www.lynda.com/Python-tutorials/Functions/614299/687486-4.html",
  "https://www.lynda.com/Python-tutorials/Objects/614299/687487-4.html",
  "https://www.lynda.com/Python-tutorials/Overview/614299/687489-4.html",
  "https://www.lynda.com/Python-tutorials/string-type/614299/687490-4.html",
  "https://www.lynda.com/Python-tutorials/Numeric-types/614299/687491-4.html",
  "https://www.lynda.com/Python-tutorials/bool-type/614299/687492-4.html",
  "https://www.lynda.com/Python-tutorials/Sequence-types/614299/687493-4.html",
  "https://www.lynda.com/Python-tutorials/type-id/614299/687494-4.html",
  "https://www.lynda.com/Python-tutorials/Conditional-syntax/614299/687496-4.html",
  "https://www.lynda.com/Python-tutorials/Conditional-operators/614299/687497-4.html",
  "https://www.lynda.com/Python-tutorials/Conditional-assignment/614299/687498-4.html",
  "https://www.lynda.com/Python-tutorials/Arithmetic-operators/614299/687500-4.html",
  "https://www.lynda.com/Python-tutorials/Bitwise-operators/614299/687501-4.html",
  "https://www.lynda.com/Python-tutorials/Comparison-operators/614299/687502-4.html",
  "https://www.lynda.com/Python-tutorials/Boolean-operators/614299/687503-4.html",
  "https://www.lynda.com/Python-tutorials/Operator-precedence/614299/687504-4.html",
  "https://www.lynda.com/Python-tutorials/Python-loops/614299/687506-4.html",
  "https://www.lynda.com/Python-tutorials/while-loop/614299/687507-4.html",
  "https://www.lynda.com/Python-tutorials/loop/614299/687508-4.html",
  "https://www.lynda.com/Python-tutorials/Additional-controls/614299/687509-4.html",
  "https://www.lynda.com/Python-tutorials/Defining-function/614299/687511-4.html",
  "https://www.lynda.com/Python-tutorials/Function-arguments/614299/687512-4.html",
  "https://www.lynda.com/Python-tutorials/Argument-lists/614299/687513-4.html",
  "https://www.lynda.com/Python-tutorials/Keyword-arguments/614299/687514-4.html",
  "https://www.lynda.com/Python-tutorials/Return-values/614299/687515-4.html",
  "https://www.lynda.com/Python-tutorials/Generators/614299/687516-4.html",
  "https://www.lynda.com/Python-tutorials/Decorators/614299/687517-4.html",
  "https://www.lynda.com/Python-tutorials/Basic-data-structures/614299/687519-4.html",
  "https://www.lynda.com/Python-tutorials/Lists-tuples/614299/687520-4.html",
  "https://www.lynda.com/Python-tutorials/Dictionaries/614299/687521-4.html",
  "https://www.lynda.com/Python-tutorials/Sets/614299/687522-4.html",
  "https://www.lynda.com/Python-tutorials/List-comprehension/614299/687523-4.html",
  "https://www.lynda.com/Python-tutorials/Mixed-structures/614299/687524-4.html",
  "https://www.lynda.com/Python-tutorials/Creating-class/614299/687526-4.html",
  "https://www.lynda.com/Python-tutorials/Constructing-object/614299/687527-4.html",
  "https://www.lynda.com/Python-tutorials/Class-methods/614299/687528-4.html",
  "https://www.lynda.com/Python-tutorials/Object-data/614299/687529-4.html",
  "https://www.lynda.com/Python-tutorials/Inheritance/614299/687530-4.html",
  "https://www.lynda.com/Python-tutorials/Iterator-objects/614299/687531-4.html",
  "https://www.lynda.com/Python-tutorials/Handling-exceptions/614299/687533-4.html",
  "https://www.lynda.com/Python-tutorials/Reporting-errors/614299/687534-4.html",
  "https://www.lynda.com/Python-tutorials/Overview-string-objects/614299/687536-4.html",
  "https://www.lynda.com/Python-tutorials/Common-string-methods/614299/687537-4.html",
  "https://www.lynda.com/Python-tutorials/Formatting-strings/614299/687538-4.html",
  "https://www.lynda.com/Python-tutorials/Splitting-joining/614299/687539-4.html",
  "https://www.lynda.com/Python-tutorials/Opening-files/614299/687541-4.html",
  "https://www.lynda.com/Python-tutorials/Text-vs-binary-mode/614299/687542-4.html",
  "https://www.lynda.com/Python-tutorials/Text-files/614299/687543-4.html",
  "https://www.lynda.com/Python-tutorials/Binary-files/614299/687544-4.html",
  "https://www.lynda.com/Python-tutorials/Numeric-functions/614299/687546-4.html",
  "https://www.lynda.com/Python-tutorials/String-functions/614299/687547-4.html",
  "https://www.lynda.com/Python-tutorials/Container-functions/614299/687548-4.html",
  "https://www.lynda.com/Python-tutorials/Object-class-functions/614299/687549-4.html",
  "https://www.lynda.com/Python-tutorials/Using-standard-modules/614299/687551-4.html",
  "https://www.lynda.com/Python-tutorials/Creating-module/614299/687552-4.html",
  "https://www.lynda.com/Python-tutorials/Python-database-API/614299/687554-4.html",
  "https://www.lynda.com/Python-tutorials/database-interface/614299/687555-4.html",
  "https://www.lynda.com/Python-tutorials/Example-Short-URL-database/614299/687556-4.html",
  "https://www.lynda.com/Python-tutorials/Wrap-up/614299/687558-4.html"
]